<?xml version="1.0" encoding="UTF-8"?>
<svg width="30px" height="30px" viewBox="0 0 30 30" version="1.1" xmlns="http://www.w3.org/2000/svg" xmlns:xlink="http://www.w3.org/1999/xlink">
    <!-- Generator: Sketch 60 (88103) - https://sketch.com -->
    <title>rocket-launch(1)</title>
    <desc>Created with Sketch.</desc>
    <g id="Page-1" stroke="none" stroke-width="1" fill="none" fill-rule="evenodd">
        <g id="index-1.0" transform="translate(-85.000000, -399.000000)" fill="#FFFFFF" fill-rule="nonzero">
            <g id="rocket-launch(1)" transform="translate(85.000000, 399.000000)">
                <path d="M3.18439024,21.6626341 C1.94809756,22.8989268 0.224780488,28.5559024 0.0374634146,29.1927805 C-0.0374634146,29.4924878 0.112390244,29.8296585 0.449560976,29.9045854 C0.48702439,29.9045854 0.56195122,29.9420488 0.599414634,29.9420488 C0.636878049,29.9420488 0.711804878,29.9420488 0.749268293,29.9045854 C1.38614634,29.7172683 7.04312195,27.9939512 8.27941463,26.7576585 C9.70302439,25.3340488 9.70302439,23.0487805 8.27941463,21.6626341 C6.89326829,20.2764878 4.608,20.2764878 3.18439024,21.6626341 L3.18439024,21.6626341 Z" id="Path"></path>
                <path d="M29.5960976,1.0577561 C29.5211707,0.720585366 29.2589268,0.495804878 28.9217561,0.383414634 C27.4606829,0.0837073171 25.9246829,-0.0286829268 24.4261463,0.0087804878 C18.8066341,0.0087804878 15.4349268,3.00585366 12.924878,6.97697561 L7.26790244,6.97697561 C6.29385366,7.01443902 5.43219512,7.57639024 4.94517073,8.40058537 L2.24780488,13.7953171 C2.17287805,13.9826341 2.13541463,14.1699512 2.09795122,14.3947317 C2.09795122,15.1065366 2.69736585,15.7059512 3.40917073,15.7059512 L9.06614634,15.7059512 L7.86731707,16.9047805 C7.19297561,17.579122 7.19297561,18.665561 7.86731707,19.3773659 L10.6396098,22.1496585 C11.3139512,22.824 12.4003902,22.824 13.1121951,22.1496585 L14.3484878,20.9133659 L14.3484878,26.5703415 C14.3484878,27.2821463 14.910439,27.881561 15.6597073,27.881561 C15.8470244,27.881561 16.0343415,27.8440976 16.2216585,27.7691707 L21.5789268,25.0718049 C22.4405854,24.5847805 22.9650732,23.723122 23.0025366,22.7490732 L23.0025366,17.0171707 C26.9736585,14.507122 29.9707317,11.1354146 29.9707317,5.55336585 C30.0081951,4.05482927 29.8958049,2.55629268 29.5960976,1.0577561 Z M23.0025366,9.14985366 C21.8037073,9.14985366 20.8296585,8.17580488 20.8296585,6.97697561 C20.8296585,5.77814634 21.8037073,4.80409756 23.0025366,4.80409756 C24.2013659,4.80409756 25.1754146,5.77814634 25.1754146,6.97697561 C25.1754146,8.17580488 24.2013659,9.14985366 23.0025366,9.14985366 Z" id="_Path_"></path>
            </g>
        </g>
    </g>
</svg>