<?xml version="1.0" encoding="UTF-8"?>
<svg width="254px" height="25px" viewBox="0 0 254 25" version="1.1" xmlns="http://www.w3.org/2000/svg" xmlns:xlink="http://www.w3.org/1999/xlink">
    <!-- Generator: Sketch 60 (88103) - https://sketch.com -->
    <title>XMLID_30_</title>
    <desc>Created with Sketch.</desc>
    <g id="Page-1" stroke="none" stroke-width="1" fill="none" fill-rule="evenodd">
        <g id="index-1.0" transform="translate(-200.000000, -40.000000)" fill="#000000" fill-rule="nonzero">
            <g id="XMLID_30_" transform="translate(200.000000, 40.000000)">
                <path d="M10.3084817,1.14368557 L9.21631254,6.26409472 L12.8016958,6.26409472 L13.893865,1.14368557 L17.6584165,1.14368557 L16.5829024,6.26409472 L19.4183027,6.26409472 L19.4183027,9.95389014 L15.8001139,9.95389014 L14.7407502,14.976643 L19.0266561,14.976643 L19.0266561,18.6669418 L13.9584665,18.6669418 L12.8991028,23.6730831 L9.11840089,23.6730831 L10.1777646,18.6669418 L6.60853165,18.6669418 L5.5330176,23.6730831 L1.75231571,23.6730831 L2.82782975,18.6669418 L0.334110887,18.6669418 L0.334110887,14.976643 L3.60960885,14.976643 L4.66897253,9.95389014 L0.236199237,9.95389014 L0.236199237,6.26409472 L5.45125632,6.26409472 L6.54342545,1.14368557 L10.3084817,1.14368557 Z M10.9600484,14.9761397 L12.019412,9.95338676 L8.45017912,9.95338676 L7.37466507,14.9761397 L10.9600484,14.9761397 Z" id="XMLID_59_"></path>
                <polygon id="XMLID_57_" points="28.1036716 0.607079575 34.0359063 15.6748349 39.968141 0.607079575 44.2378964 0.607079575 44.2378964 24.5499758 39.1535564 24.5499758 39.1535564 15.3496496 35.5681731 24.5499758 32.5041442 24.5499758 28.9354159 15.3496496 28.9354159 24.5499758 23.8344209 24.5499758 23.8344209 0.607079575"></polygon>
                <polygon id="XMLID_55_" points="49.3055813 0.607079575 54.4065764 0.607079575 54.4065764 24.5499758 49.3055813 24.5499758"></polygon>
                <polygon id="XMLID_53_" points="63.4830873 0.607079575 70.4090747 12.8302191 70.4090747 0.57486308 75.5105745 0.57486308 75.5105745 24.5504792 71.5340493 24.5504792 64.5752564 12.2619 64.5752564 24.5504792 59.4742613 24.5504792 59.4742613 0.607079575"></polygon>
                <path d="M91.1062852,0.363442332 C94.430739,0.363442332 97.2666439,1.56098985 99.6134953,3.95558151 C101.982049,6.33960213 103.166073,9.21643444 103.166073,12.5865818 C103.166073,15.9461582 101.981544,18.8174533 99.6134953,21.2014739 C97.2666439,23.5965689 94.430739,24.7936131 91.1062852,24.7936131 C87.770728,24.7936131 84.9297761,23.5965689 82.5829247,21.2014739 C80.2143712,18.8179567 79.0303469,15.9461582 79.0303469,12.5865818 C79.0303469,9.21643444 80.2143712,6.33960213 82.5829247,3.95558151 C84.9297761,1.56098985 87.7702233,0.363442332 91.1062852,0.363442332 Z M91.1062852,19.5921593 C92.9857851,19.5921593 94.5937568,18.9095723 95.9302004,17.5443984 C97.2666439,16.178721 97.9348657,14.5266189 97.9348657,12.5865818 C97.9348657,10.6576192 97.2666439,9.00501369 95.9302004,7.6287653 C94.5937568,6.26359133 92.9857851,5.58100435 91.1062852,5.58100435 C89.2156819,5.58100435 87.6021585,6.26359133 86.2662196,7.6287653 C84.9297761,9.00501369 84.2615543,10.6576192 84.2615543,12.5865818 C84.2615543,14.5266189 84.9297761,16.178721 86.2662196,17.5443984 C87.6021585,18.9100757 89.2156819,19.5921593 91.1062852,19.5921593 Z" id="XMLID_50_"></path>
                <path d="M116.708163,24.5499758 L111.802991,15.9678036 L111.802991,24.5499758 L106.685846,24.5499758 L106.685846,0.607079575 L114.899321,0.607079575 C116.811626,0.607079575 118.408494,1.25745006 119.69043,2.55768766 C120.982965,3.87957072 121.667842,5.54325064 121.744052,7.54772068 C121.830355,9.7802231 121.238848,11.5516269 119.96751,12.8629389 C119.218032,13.6431822 118.25658,14.2175419 117.08265,14.586018 L122.949778,24.5499758 L116.708163,24.5499758 Z M116.643057,7.74303318 C116.588044,6.38843025 116.007136,5.71138048 114.899321,5.71138048 L111.802991,5.71138048 L111.802991,10.0354381 L115.078489,10.0354381 C115.578141,10.0354381 115.969283,9.84868315 116.251915,9.47466978 C116.534042,9.10015303 116.664759,8.52327642 116.643057,7.74303318 Z" id="XMLID_47_"></path>
                <polygon id="XMLID_45_" points="127.772684 0.818500322 134.666371 17.7558191 141.560057 0.818500322 144.656387 0.818500322 144.656387 24.5499758 140.956942 24.5499758 140.956942 12.098804 135.888247 24.5499758 133.443989 24.5499758 128.375295 12.098804 128.375295 24.5499758 124.675849 24.5499758 124.675849 0.818500322"></polygon>
                <path d="M159.665637,0.818500322 L169.524937,24.5499758 L165.532261,24.5499758 L162.680206,17.706991 L153.749553,17.706991 L150.881347,24.5499758 L146.872521,24.5499758 L156.764626,0.818500322 L159.665637,0.818500322 Z M161.148444,14.0171956 L158.215132,6.97940158 L155.281315,14.0171956 L161.148444,14.0171956 Z" id="XMLID_42_"></path>
                <polygon id="XMLID_40_" points="183.050876 4.50829575 177.93373 4.50829575 177.93373 24.5499758 174.234285 24.5499758 174.234285 4.50829575 169.132785 4.50829575 169.132785 0.818500322 183.050876 0.818500322"></polygon>
                <polygon id="XMLID_38_" points="199.265853 0.818500322 199.265853 4.50829575 194.148707 4.50829575 194.148707 24.5499758 190.449262 24.5499758 190.449262 4.50829575 185.347762 4.50829575 185.347762 0.818500322 199.265853 0.818500322"></polygon>
                <polygon id="XMLID_36_" points="202.540846 0.818500322 217.159459 0.818500322 217.159459 4.50829575 206.240291 4.50829575 206.240291 10.815178 217.159459 10.815178 217.159459 14.5049734 206.240291 14.5049734 206.240291 20.876792 217.159459 20.876792 217.159459 24.5504792 202.540846 24.5504792"></polygon>
                <path d="M232.527045,24.5499758 L224.785464,13.5621376 L224.785464,24.5499758 L221.086019,24.5499758 L221.086019,0.818500322 L228.941158,0.818500322 C230.853463,0.818500322 232.407432,1.50159069 233.60256,2.86676466 C234.699776,4.10206588 235.281189,5.60315319 235.346295,7.36901981 C235.422505,9.49279156 234.873897,11.1620087 233.700471,12.3756645 C232.776872,13.3512202 231.484337,13.9905163 229.821858,14.2935527 L237.042085,24.5504792 L232.527045,24.5504792 L232.527045,24.5499758 Z M226.432298,10.8312862 C228.854854,10.8312862 230.392168,10.49553 231.043734,9.82351401 C231.488879,9.3573816 231.690254,8.58821279 231.64685,7.51550419 C231.625148,6.88677916 231.478785,6.32349388 231.207257,5.82514497 C230.751009,4.94724549 229.995474,4.50879913 228.941662,4.50879913 L224.785969,4.50879913 L224.785969,10.8317896 L226.432298,10.8317896 L226.432298,10.8312862 Z" id="XMLID_33_"></path>
                <path d="M246.297764,4.31298325 C245.275748,4.31298325 244.401104,4.63313466 243.673328,5.27192735 C242.956655,5.90065238 242.597814,6.66478737 242.597814,7.56382893 C242.597814,8.46337387 242.880445,9.1243154 243.445709,9.54665351 C243.967063,9.93627175 245.074878,10.3701877 246.770162,10.8468911 C248.877282,11.4217542 250.398445,12.0499758 251.333148,12.7325628 C252.984524,13.9245731 253.810212,15.631544 253.810212,17.852972 C253.810212,19.793009 253.077389,21.4506484 251.610228,22.8268967 C250.143572,24.2142196 248.372078,24.9073776 246.297764,24.9073776 C244.221936,24.9073776 242.450946,24.2142196 240.984795,22.8268967 C239.518139,21.4506484 238.784811,19.793009 238.784811,17.852972 L242.597814,17.852972 C242.597814,18.7525169 242.956655,19.5166519 243.673328,20.1448736 C244.401609,20.7841696 245.275748,21.1038177 246.297764,21.1038177 C247.318266,21.1038177 248.193414,20.7841696 248.921695,20.1448736 C249.638368,19.5166519 249.997209,18.7525169 249.997209,17.852972 C249.997209,16.8995651 249.681772,16.1948293 249.051403,15.7397713 C248.541152,15.3712951 247.443936,14.9539908 245.759754,14.4883618 C243.673328,13.9250765 242.163772,13.3018887 241.22907,12.6187983 C239.599396,11.4378624 238.784811,9.75253705 238.784811,7.56382893 C238.784811,5.62379188 239.518139,3.96061534 240.984795,2.57379591 C242.451451,1.19754752 244.221936,0.509423325 246.297764,0.509423325 C248.372078,0.509423325 250.143572,1.19754752 251.610228,2.57379591 C253.077389,3.96111872 253.810212,5.62429526 253.810212,7.56382893 L249.997209,7.56382893 C249.997209,6.66428399 249.638368,5.900149 248.921695,5.27192735 C248.193414,4.63313466 247.318266,4.31298325 246.297764,4.31298325 Z" id="XMLID_31_"></path>
            </g>
        </g>
    </g>
</svg>